<svg version="1.1" id="Layer_1" xmlns="http://www.w3.org/2000/svg" xmlns:xlink="http://www.w3.org/1999/xlink" x="0px" y="0px"
	 width="545.775px" height="71.864px" viewBox="0 0 545.775 71.864" enable-background="new 0 0 545.775 71.864"
	 xml:space="preserve">
<path fill-rule="evenodd" clip-rule="evenodd" fill="#FFFFFF" d="M48.799,70.407c-1.458,0.486-2.913,0.729-4.371,0.971
	c-1.699,0.243-3.398,0.243-5.342,0.243c-11.651,0-21.121-3.398-28.405-9.952C3.398,55.112,0,46.616,0,36.175
	c0-10.196,3.641-18.937,11.167-25.979C18.694,3.4,28.162,0,39.816,0c1.214,0,2.67,0,4.128,0.243c1.457,0,3.154,0.243,4.612,0.73
	l0.971,20.637c-1.699-0.73-3.398-1.215-5.099-1.701c-1.699-0.242-3.398-0.485-4.856-0.485c-5.826,0-10.682,1.457-14.323,4.612
	c-3.643,3.157-5.34,7.041-5.34,11.654c0,4.612,1.697,8.496,5.34,11.655c3.641,3.155,8.255,4.854,13.597,4.854
	c1.942,0,3.883-0.242,5.825-0.727c1.942-0.486,3.886-1.215,5.584-2.186L48.799,70.407L48.799,70.407z"/>
<path fill-rule="evenodd" clip-rule="evenodd" fill="#FFFFFF" d="M80.604,36.418c-2.428,0-4.612,0.971-6.556,2.67
	c-1.701,1.699-2.67,4.125-2.67,6.557c0,2.67,0.969,4.854,2.67,6.797c1.943,1.699,4.128,2.67,6.556,2.67
	c2.671,0,4.854-0.971,6.554-2.914c1.943-1.698,2.671-3.883,2.671-6.553c0-2.432-0.728-4.615-2.671-6.557
	C85.458,37.39,83.275,36.418,80.604,36.418L80.604,36.418z M80.604,19.667c7.769,0,14.082,2.67,19.422,7.771
	c5.34,5.098,8.013,11.166,8.013,18.208c0,7.281-2.673,13.593-8.013,18.693c-5.098,5.098-11.653,7.525-19.422,7.525
	c-7.526,0-14.082-2.428-19.422-7.525c-5.342-5.101-8.014-11.412-8.014-18.693c0-7.043,2.672-13.111,8.014-18.208
	C66.522,22.336,73.078,19.667,80.604,19.667L80.604,19.667z"/>
<path fill-rule="evenodd" clip-rule="evenodd" fill="#FFFFFF" d="M111.195,70.407v-49.77h17.723v4.856
	c1.699-1.943,3.641-3.4,5.826-4.126c2.427-0.973,4.854-1.458,7.771-1.458c5.34,0,9.228,1.458,11.897,4.369
	c2.67,2.915,4.126,7.043,4.126,12.383v33.747h-18.212V43.942c0-2.912-0.243-4.854-1.213-6.068c-0.725-0.97-1.942-1.699-3.884-1.699
	s-3.398,0.729-4.369,1.942c-1.214,1.456-1.699,3.398-1.699,5.825v26.465H111.195L111.195,70.407z"/>
<path fill-rule="evenodd" clip-rule="evenodd" fill="#FFFFFF" d="M163.635,70.407v-49.77h17.966v4.856
	c1.459-1.943,3.644-3.4,5.829-4.126c2.185-0.973,4.855-1.458,7.768-1.458c5.097,0,8.984,1.458,11.897,4.369
	c2.67,2.915,3.884,7.043,3.884,12.383v33.747h-17.965V43.942c0-2.912-0.485-4.854-1.214-6.068c-0.728-0.97-2.185-1.699-4.126-1.699
	s-3.398,0.729-4.369,1.942c-0.971,1.456-1.459,3.398-1.459,5.825v26.465H163.635L163.635,70.407z"/>
<path fill-rule="evenodd" clip-rule="evenodd" fill="#FFFFFF" d="M230.885,45.646l16.51-10.926
	c-0.726-0.729-1.696-1.214-2.425-1.457c-0.971-0.243-2.188-0.486-3.401-0.486c-2.912,0-5.343,0.971-7.524,3.156
	c-2.188,1.941-3.401,4.369-3.401,7.039c0,0.486,0,0.971,0,1.214C230.885,44.671,230.885,45.159,230.885,45.646L230.885,45.646z
	 M263.66,65.553c-3.397,1.942-6.554,3.397-10.194,4.369s-7.282,1.456-11.169,1.456c-8.253,0-15.053-2.428-20.15-7.281
	c-4.854-4.615-7.524-10.927-7.524-18.451c0-7.285,2.67-13.354,8.01-18.453c5.341-5.34,11.897-7.77,19.665-7.77
	c5.829,0,10.684,1.457,15.053,4.612c4.369,2.914,7.285,7.285,9.224,12.383l-28.646,19.178c0.971,0.244,1.941,0.486,2.913,0.729
	c0.971,0.243,1.941,0.243,3.158,0.243c2.913,0,6.068-0.728,8.981-1.942c3.155-1.213,6.311-3.154,9.224-5.586L263.66,65.553
	L263.66,65.553z"/>
<path fill-rule="evenodd" clip-rule="evenodd" fill="#FFFFFF" d="M305.178,69.922c-1.456,0.485-3.155,0.728-4.854,0.972
	c-1.699,0.242-3.159,0.242-4.858,0.242c-8.01,0-14.324-2.428-19.179-7.282c-4.854-4.858-7.285-11.169-7.285-18.937
	c0-7.527,2.673-13.354,7.527-17.967c5.098-4.613,11.897-6.798,20.15-6.798c1.456,0,2.916,0,4.373,0.243
	c1.456,0,2.912,0.485,4.126,0.73V37.39c-1.699-0.486-2.913-0.729-4.126-0.971c-1.214-0.243-2.428-0.243-3.159-0.243
	c-3.641,0-6.312,0.729-8.253,2.427c-1.942,1.699-2.913,3.884-2.913,6.801c0,2.67,0.971,4.854,3.155,6.553
	c1.942,1.699,4.612,2.67,8.011,2.67c0.975,0,1.945,0,3.159-0.242c1.213,0,2.67-0.242,4.126-0.486V69.922L305.178,69.922z"/>
<path fill-rule="evenodd" clip-rule="evenodd" fill="#FFFFFF" d="M336.012,70.407c-1.457,0.242-2.67,0.242-3.888,0.486
	c-1.21,0-2.427,0-3.641,0c-6.068,0-10.194-0.972-12.379-3.398c-2.185-2.432-3.402-7.285-3.402-14.811V33.991h-3.397V18.453h3.397
	v-5.34l18.212-9.956v15.295h6.797v15.538h-6.797v11.655c0,2.67,0.239,4.611,0.968,5.582c0.731,0.971,2.188,1.457,4.13,1.457
	c0.728,0,1.456,0,1.941-0.242c0.485,0,0.971,0,1.457,0L336.012,70.407L336.012,70.407z"/>
<polygon fill-rule="evenodd" clip-rule="evenodd" fill="#FFFFFF" points="364.903,70.407 364.903,1.215 405.449,1.215 
	408.359,19.667 384.082,19.667 384.082,26.708 399.378,26.708 399.378,44.917 384.082,44.917 384.082,70.407 364.903,70.407 "/>
<path fill-rule="evenodd" clip-rule="evenodd" fill="#FFFFFF" d="M431.668,35.69c-2.431,0-4.612,0.729-6.558,2.427
	c-1.698,1.942-2.67,4.126-2.67,6.8c0,2.67,0.729,4.855,2.67,6.555c1.703,1.941,3.888,2.67,6.558,2.67s4.854-0.729,6.554-2.67
	c1.941-1.699,2.674-3.885,2.674-6.555c0-2.674-0.732-4.857-2.674-6.557C436.522,36.418,434.338,35.69,431.668,35.69L431.668,35.69z
	 M431.668,18.695c7.768,0,14.082,2.672,19.665,7.769c5.343,5.342,8.013,11.167,8.013,18.453c0,7.281-2.67,13.594-8.013,18.693
	c-5.341,5.098-11.897,7.768-19.665,7.768c-7.528,0-14.082-2.67-19.665-7.768c-5.34-5.1-8.013-11.412-8.013-18.693
	c0-7.285,2.673-13.354,8.256-18.453C417.586,21.367,424.14,18.695,431.668,18.695L431.668,18.695z"/>
<path fill-rule="evenodd" clip-rule="evenodd" fill="#FFFFFF" d="M511.058,20.637v49.77H492.85v-4.854
	c-1.699,1.942-3.645,3.397-6.071,4.126c-2.185,0.971-4.854,1.457-7.768,1.457c-5.34,0-9.228-1.457-12.14-4.369
	c-2.67-2.67-4.127-7.043-4.127-12.383V20.637h18.451v26.221c0,2.914,0.485,4.855,1.214,6.068c0.971,0.971,2.185,1.699,4.126,1.699
	c1.942,0,3.642-0.729,4.615-1.941c0.972-1.213,1.457-3.156,1.457-5.826V20.637H511.058L511.058,20.637z"/>
<path fill-rule="evenodd" clip-rule="evenodd" fill="#FFFFFF" d="M516.641,70.407v-49.77h17.48v5.099
	c1.215-1.701,2.916-3.156,4.615-4.126c1.941-0.73,4.369-1.458,7.039-1.458v16.994h-1.941c-3.156,0-5.582,0.728-7.281,2.427
	c-1.461,1.699-2.432,3.885-2.432,7.043v23.791H516.641L516.641,70.407z"/>
</svg>